1500 3500 217
100 200 125
201 210 89
900 1000 174
100000 100001 129
999998 999999 259
1 2 2
1000 50 179
999999 999998 259
1 999999 525
9660 457701 449
31130 552195 470
8570 362810 443
3338 606815 470
31336 65799 340
46195 587200 470
39445 241061 443
12163 404863 443
19781 152624 375
11788 488352 449
4833 232498 443
16272 557675 470
16547 267154 443
30355 625464 470
24312 650396 509
15849 129562 354
20713 108153 354
22417 240505 443
378 131999 354
42371 361302 443
33703 291334 443
25457 546954 470
29073 256664 443
20713 532294 470
44010 220753 386
38189 489589 449
30370 467577 449
1848 512120 470
30572 595471 470
25326 424874 449
6231 636779 509
38326 656689 509
36204 504733 449
12307 648863 509
2530 291877 443
14529 57623 340
35980 304290 443
34751 211265 383
45436 632907 509
33359 615492 470
17551 92390 351
29342 602487 470
1320 571973 470
12264 277912 443
12737 152149 375
45302 109739 354
33294 207281 383
32202 555730 470
3181 632275 509
30251 451496 449
28539 245714 443
29521 216972 386
57075 351701 443
3615 344812 443
8057 298481 443
73875 320488 443
38563 338881 443
36327 288685 443
19566 312335 443
24739 391069 443
95852 219448 386
4878 299698 443
66593 77401 351
37758 287989 443
47993 11045 324
89939 389925 443
23180 234120 443
28341 354185 443
36790 327288 443
22117 496390 449
81226 286243 443
90070 291651 443
84369 71010 351
10821 248319 443
58683 23161 340
21227 18630 274
46103 383677 443
94305 484537 449
35438 374397 443
34620 445248 449
24604 474760 449
91638 268353 443
92638 480954 449
79803 482733 449
14771 249424 443
15286 10666 276
71442 251115 443
89593 496539 449
13619 213136 383
55555 462236 449
59363 476849 449
49750 60933 340
50427 409784 443
49683 277297 443
74784 341874 443
40988 368342 443
96050 493880 449
23673 131334 354
15782 494714 449
77971 194495 383
398 40127 324
669 2789 209
230 15588 276
342 2615 209
728 35541 311
280 14294 276
37 20359 279
195 49329 324
52 33166 308
844 35842 324
548 32537 308
636 7390 262
41 36412 324
413 30834 308
212 8971 262
814 25140 282
273 2890 209
639 18880 279
833 8643 262
28 9960 262
158 38086 324
384 24255 282
647 37816 324
327 17825 279
212 24574 282
688 43782 324
496 6859 262
600 20938 279
856 2960 217
966 11391 268
612 44895 324
940 15800 276
721 24447 282
628 17513 276
380 23868 282
53 39783 324
737 28985 308
661 22830 279
963 34247 311
969 15418 276
841 1836 182
503 4995 238
5 17692 279
716 14369 276
197 9321 262
284 22090 279
163 44902 324
85 38071 324
988 2090 182
673 37449 324
976662 888827 507
959686 878269 507
997144 835138 525
974396 867585 507
986300 841712 507
907613 870084 445
929536 864113 476
918080 870195 476
979645 845877 507
958915 850731 507
904429 857790 445
954025 804825 525
944446 882790 507
900916 862020 445
985597 857888 507
960539 885653 507
907370 852174 445
931046 883381 476
982156 819495 525
969600 877245 507
977105 892269 507
937858 859976 476
917236 806328 525
916260 880673 476
937388 856716 476
957018 832432 525
949496 837571 525
982175 838295 507
944180 811090 525
949641 897568 507
910392 858205 476
905731 847188 445
934972 872363 476
963767 881782 507
932665 847892 476
919799 858687 476
959699 873484 507
999907 880081 507
910804 827330 525
941246 848960 507
933535 852828 476
901215 884443 445
907970 879888 445
903558 816137 525
927984 892940 476
945023 860634 507
987383 802230 525
954675 804247 525
988558 883916 507
972963 884875 507
