415155 321495 449
892937 198061 525
494100 660157 509
690537 392034 509
768321 713785 468
599867 767867 509
361339 772708 509
422534 638788 509
715042 717567 380
632152 329664 509
754757 126467 509
372130 732605 509
384577 429600 449
584706 70513 470
137651 556769 470
173656 833965 509
255457 790948 509
160164 180665 370
776292 151142 509
869621 94390 525
513963 986773 525
905533 818129 525
845174 149386 525
307649 202457 443
8369 75589 340
967863 43268 525
888355 11477 525
929159 479668 525
712832 25785 509
80435 605827 470
355739 825716 509
638453 921650 525
908835 245899 525
575699 723217 509
978881 975244 383
828917 551989 509
575781 201767 470
699608 334397 509
625905 585834 447
753965 363056 509
398515 723903 509
720277 578676 509
33219 835515 509
686626 389954 509
41869 327914 443
110576 216509 386
195867 100448 383
167783 697507 509
557587 512621 452
761384 370146 509
629697 343654 509
724173 847662 525
956388 671549 525
358469 676280 509
513384 991402 525
785034 261874 509
47932 984587 525
17139 883741 525
477922 895631 525
874760 338317 525
455619 345099 449
973249 438581 525
700227 727557 504
970344 415850 525
653660 778957 504
532133 947160 525
787756 62716 509
645621 107311 509
100943 837368 509
127744 127803 212
940936 595800 525
510064 96133 449
213653 92823 383
611156 662444 509
294856 896097 525
838440 953089 507
259379 349972 441
369381 429109 449
175929 138594 383
658039 437887 509
520996 676731 509
562050 284913 470
469585 941253 525
691416 469228 509
780758 63967 509
252492 359834 441
789209 808731 468
882496 676368 525
538928 328914 470
800517 852401 525
776934 668132 504
834421 437699 509
216591 989299 525
163465 393500 443
178174 42268 383
900557 599657 525
791689 28543 509
180655 382967 443
294755 865543 525
818861 34763 509
404809 666724 509
850247 204838 525
901859 814767 525
293405 48075 443
155265 320091 443
697932 651709 442
308348 421392 449
978380 662904 525
826205 446178 509
970282 326276 525
405598 864897 525
732857 587391 509
647279 655206 385
227109 426828 449
585621 83155 470
628149 895709 525
742057 394671 509
291935 196439 443
817628 497557 509
234382 67684 443
227184 751066 509
32445 991381 525
79894 374839 443
456958 480451 444
772729 115706 509
46773 418211 449
41936 774425 509
559106 159281 470
745079 319662 509
612611 288887 470
189299 241818 443
576465 985407 525
805721 441088 509
914460 980065 507
789305 847962 525
159564 448445 449
398113 785397 509
864613 284029 525
724148 474973 509
832599 417583 509
574218 688607 509
766124 927453 525
326466 778186 509
657608 137571 509
131766 265932 443
410074 718780 509
711622 311537 509
188865 243859 443
259095 616912 470
202641 420734 449
449143 73785 449
